SklNih/CH1_Resonanca.CSV

Record Length,2.500000e+03,,   0.000105000000,  -0.08000,
Sample Interval,1.000000e-07,,   0.000105100000,  -0.06400,
Trigger Point,-1.050000000000e+03,,   0.000105200000,  -0.04000,
,,,   0.000105300000,  -0.02400,
,,,   0.000105400000,  -0.00800,
,,,   0.000105500000,   0.01600,
Source,CH1,,   0.000105600000,   0.04000,
Vertical Units,V,,   0.000105700000,   0.05600,
Vertical Scale,2.000000e-01,,   0.000105800000,   0.08000,
Vertical Offset,0.000000e+00,,   0.000105900000,   0.09600,
Horizontal Units,s,,   0.000106000000,   0.12000,
Horizontal Scale,2.500000e-05,,   0.000106100000,   0.13600,
Pt Fmt,Y,,   0.000106200000,   0.16000,
Yzero,0.000000e+00,,   0.000106300000,   0.17600,
Probe Atten,1.000000e+00,,   0.000106400000,   0.19200,
Model Number,TDS2012B,,   0.000106500000,   0.21600,
Serial Number,C102475,,   0.000106600000,   0.23200,
Firmware Version,FV:v22.11,,   0.000106700000,   0.25600,
,,,0.000106800000,   0.27200,
,,,0.000106900000,   0.28800,
,,,0.000107000000,   0.30400,
,,,0.000107100000,   0.32000,
,,,0.000107200000,   0.33600,
,,,0.000107300000,   0.34400,
,,,0.000107400000,   0.36000,
,,,0.000107500000,   0.37600,
,,,0.000107600000,   0.39200,
,,,0.000107700000,   0.40000,
,,,0.000107800000,   0.41600,
,,,0.000107900000,   0.42400,
,,,0.000108000000,   0.43200,
,,,0.000108100000,   0.44000,
,,,0.000108200000,   0.44800,
,,,0.000108300000,   0.45600,
,,,0.000108400000,   0.46400,
,,,0.000108500000,   0.47200,
,,,0.000108600000,   0.48000,
,,,0.000108700000,   0.48000,
,,,0.000108800000,   0.48800,
,,,0.000108900000,   0.48800,
,,,0.000109000000,   0.48800,
,,,0.000109100000,   0.48800,
,,,0.000109200000,   0.48800,
,,,0.000109300000,   0.49600,
,,,0.000109400000,   0.49600,
,,,0.000109500000,   0.48800,
,,,0.000109600000,   0.48800,
,,,0.000109700000,   0.48000,
,,,0.000109800000,   0.48000,
,,,0.000109900000,   0.47200,
,,,0.000110000000,   0.46400,
,,,0.000110100000,   0.45600,
,,,0.000110200000,   0.44800,
,,,0.000110300000,   0.44000,
,,,0.000110400000,   0.43200,
,,,0.000110500000,   0.42400,
,,,0.000110600000,   0.41600,
,,,0.000110700000,   0.40000,
,,,0.000110800000,   0.39200,
,,,0.000110900000,   0.37600,
,,,0.000111000000,   0.36800,
,,,0.000111100000,   0.34400,
,,,0.000111200000,   0.32800,
,,,0.000111300000,   0.32000,
,,,0.000111400000,   0.30400,
,,,0.000111500000,   0.28800,
,,,0.000111600000,   0.26400,
,,,0.000111700000,   0.24800,
,,,0.000111800000,   0.23200,
,,,0.000111900000,   0.21600,
,,,0.000112000000,   0.19200,
,,,0.000112100000,   0.17600,
,,,0.000112200000,   0.16000,
,,,0.000112300000,   0.13600,
,,,0.000112400000,   0.12000,
,,,0.000112500000,   0.09600,
,,,0.000112600000,   0.08000,
,,,0.000112700000,   0.06400,
,,,0.000112800000,   0.04000,
,,,0.000112900000,   0.01600,
,,,0.000113000000,   0.00000,
,,,0.000113100000,  -0.02400,
,,,0.000113200000,  -0.04000,
,,,0.000113300000,  -0.06400,
,,,0.000113400000,  -0.08000,
,,,0.000113500000,  -0.10400,
,,,0.000113600000,  -0.12000,
,,,0.000113700000,  -0.14400,
,,,0.000113800000,  -0.16000,
,,,0.000113900000,  -0.17600,
,,,0.000114000000,  -0.20000,
,,,0.000114100000,  -0.21600,
,,,0.000114200000,  -0.23200,
,,,0.000114300000,  -0.25600,
,,,0.000114400000,  -0.26400,
,,,0.000114500000,  -0.28800,
,,,0.000114600000,  -0.30400,
,,,0.000114700000,  -0.32000,
,,,0.000114800000,  -0.33600,
,,,0.000114900000,  -0.35200,
,,,0.000115000000,  -0.36000,
,,,0.000115100000,  -0.37600,
,,,0.000115200000,  -0.39200,
,,,0.000115300000,  -0.40000,
,,,0.000115400000,  -0.41600,
,,,0.000115500000,  -0.42400,
,,,0.000115600000,  -0.43200,
,,,0.000115700000,  -0.44000,
,,,0.000115800000,  -0.44800,
,,,0.000115900000,  -0.45600,
,,,0.000116000000,  -0.46400,
,,,0.000116100000,  -0.47200,
,,,0.000116200000,  -0.48000,
,,,0.000116300000,  -0.48000,
,,,0.000116400000,  -0.48000,
,,,0.000116500000,  -0.48800,
,,,0.000116600000,  -0.48800,
,,,0.000116700000,  -0.48800,
,,,0.000116800000,  -0.48000,
,,,0.000116900000,  -0.48800,
,,,0.000117000000,  -0.49600,
,,,0.000117100000,  -0.48800,
,,,0.000117200000,  -0.48000,
,,,0.000117300000,  -0.48000,
,,,0.000117400000,  -0.47200,
,,,0.000117500000,  -0.46400,
,,,0.000117600000,  -0.46400,
,,,0.000117700000,  -0.45600,
,,,0.000117800000,  -0.44800,
,,,0.000117900000,  -0.44000,
,,,0.000118000000,  -0.43200,
,,,0.000118100000,  -0.41600,
,,,0.000118200000,  -0.40800,
,,,0.000118300000,  -0.40000,
,,,0.000118400000,  -0.38400,
,,,0.000118500000,  -0.37600,
,,,0.000118600000,  -0.35200,
,,,0.000118700000,  -0.34400,
,,,0.000118800000,  -0.32800,
,,,0.000118900000,  -0.31200,
,,,0.000119000000,  -0.29600,
,,,0.000119100000,  -0.28000,
,,,0.000119200000,  -0.26400,
,,,0.000119300000,  -0.24800,
,,,0.000119400000,  -0.22400,
,,,0.000119500000,  -0.21600,
,,,0.000119600000,  -0.19200,
,,,0.000119700000,  -0.17600,
,,,0.000119800000,  -0.15200,
,,,0.000119900000,  -0.13600,
,,,0.000120000000,  -0.11200,
,,,0.000120100000,  -0.09600,
,,,0.000120200000,  -0.07200,
,,,0.000120300000,  -0.05600,
,,,0.000120400000,  -0.03200,
,,,0.000120500000,  -0.01600,
,,,0.000120600000,   0.00800,
,,,0.000120700000,   0.03200,
,,,0.000120800000,   0.04800,
,,,0.000120900000,   0.07200,
,,,0.000121000000,   0.08800,
,,,0.000121100000,   0.11200,
,,,0.000121200000,   0.12000,
,,,0.000121300000,   0.14400,
,,,0.000121400000,   0.16800,
,,,0.000121500000,   0.18400,
,,,0.000121600000,   0.20800,
,,,0.000121700000,   0.22400,
,,,0.000121800000,   0.24000,
,,,0.000121900000,   0.25600,
,,,0.000122000000,   0.28000,
,,,0.000122100000,   0.28800,
,,,0.000122200000,   0.31200,
,,,0.000122300000,   0.32800,
,,,0.000122400000,   0.33600,
,,,0.000122500000,   0.35200,
,,,0.000122600000,   0.36800,
,,,0.000122700000,   0.38400,
,,,0.000122800000,   0.39200,
,,,0.000122900000,   0.40800,
,,,0.000123000000,   0.41600,
,,,0.000123100000,   0.42400,
,,,0.000123200000,   0.44000,
,,,0.000123300000,   0.44800,
,,,0.000123400000,   0.45600,
,,,0.000123500000,   0.46400,
,,,0.000123600000,   0.46400,
,,,0.000123700000,   0.47200,
,,,0.000123800000,   0.48000,
,,,0.000123900000,   0.48000,
,,,0.000124000000,   0.48800,
,,,0.000124100000,   0.48800,
,,,0.000124200000,   0.49600,
,,,0.000124300000,   0.49600,
,,,0.000124400000,   0.49600,
,,,0.000124500000,   0.48800,
,,,0.000124600000,   0.48800,
,,,0.000124700000,   0.48800,
,,,0.000124800000,   0.48800,
,,,0.000124900000,   0.48000,
,,,0.000125000000,   0.48000,
,,,0.000125100000,   0.47200,
,,,0.000125200000,   0.46400,
,,,0.000125300000,   0.45600,
,,,0.000125400000,   0.44800,
,,,0.000125500000,   0.44000,
,,,0.000125600000,   0.43200,
,,,0.000125700000,   0.42400,
,,,0.000125800000,   0.40800,
,,,0.000125900000,   0.40000,
,,,0.000126000000,   0.38400,
,,,0.000126100000,   0.36800,
,,,0.000126200000,   0.36000,
,,,0.000126300000,   0.34400,
,,,0.000126400000,   0.32800,
,,,0.000126500000,   0.31200,
,,,0.000126600000,   0.29600,
,,,0.000126700000,   0.28000,
,,,0.000126800000,   0.26400,
,,,0.000126900000,   0.24800,
,,,0.000127000000,   0.22400,
,,,0.000127100000,   0.20800,
,,,0.000127200000,   0.19200,
,,,0.000127300000,   0.16800,
,,,0.000127400000,   0.15200,
,,,0.000127500000,   0.13600,
,,,0.000127600000,   0.11200,
,,,0.000127700000,   0.09600,
,,,0.000127800000,   0.07200,
,,,0.000127900000,   0.04800,
,,,0.000128000000,   0.04000,
,,,0.000128100000,   0.01600,
,,,0.000128200000,  -0.00800,
,,,0.000128300000,  -0.03200,
,,,0.000128400000,  -0.04800,
,,,0.000128500000,  -0.07200,
,,,0.000128600000,  -0.08800,
,,,0.000128700000,  -0.11200,
,,,0.000128800000,  -0.12800,
,,,0.000128900000,  -0.14400,
,,,0.000129000000,  -0.16800,
,,,0.000129100000,  -0.18400,
,,,0.000129200000,  -0.20800,
,,,0.000129300000,  -0.21600,
,,,0.000129400000,  -0.24000,
,,,0.000129500000,  -0.25600,
,,,0.000129600000,  -0.27200,
,,,0.000129700000,  -0.29600,
,,,0.000129800000,  -0.30400,
,,,0.000129900000,  -0.32000,
,,,0.000130000000,  -0.33600,
,,,0.000130100000,  -0.35200,
,,,0.000130200000,  -0.36800,
,,,0.000130300000,  -0.38400,
,,,0.000130400000,  -0.39200,
,,,0.000130500000,  -0.40800,
,,,0.000130600000,  -0.41600,
,,,0.000130700000,  -0.42400,
,,,0.000130800000,  -0.44000,
,,,0.000130900000,  -0.44800,
,,,0.000131000000,  -0.44800,
,,,0.000131100000,  -0.45600,
,,,0.000131200000,  -0.47200,
,,,0.000131300000,  -0.47200,
,,,0.000131400000,  -0.48000,
,,,0.000131500000,  -0.48000,
,,,0.000131600000,  -0.48800,
,,,0.000131700000,  -0.48000,
,,,0.000131800000,  -0.48800,
,,,0.000131900000,  -0.48800,
,,,0.000132000000,  -0.48800,
,,,0.000132100000,  -0.48800,
,,,0.000132200000,  -0.48800,
,,,0.000132300000,  -0.48000,
,,,0.000132400000,  -0.48000,
,,,0.000132500000,  -0.48000,
,,,0.000132600000,  -0.47200,
,,,0.000132700000,  -0.47200,
,,,0.000132800000,  -0.45600,
,,,0.000132900000,  -0.44800,
,,,0.000133000000,  -0.44000,
,,,0.000133100000,  -0.43200,
,,,0.000133200000,  -0.42400,
,,,0.000133300000,  -0.41600,
,,,0.000133400000,  -0.40800,
,,,0.000133500000,  -0.39200,
,,,0.000133600000,  -0.37600,
,,,0.000133700000,  -0.36800,
,,,0.000133800000,  -0.35200,
,,,0.000133900000,  -0.33600,
,,,0.000134000000,  -0.32000,
,,,0.000134100000,  -0.30400,
,,,0.000134200000,  -0.28800,
,,,0.000134300000,  -0.27200,
,,,0.000134400000,  -0.25600,
,,,0.000134500000,  -0.24000,
,,,0.000134600000,  -0.22400,
,,,0.000134700000,  -0.20800,
,,,0.000134800000,  -0.18400,
,,,0.000134900000,  -0.16800,
,,,0.000135000000,  -0.14400,
,,,0.000135100000,  -0.12800,
,,,0.000135200000,  -0.10400,
,,,0.000135300000,  -0.08800,
,,,0.000135400000,  -0.06400,
,,,0.000135500000,  -0.04800,
,,,0.000135600000,  -0.02400,
,,,0.000135700000,  -0.00800,
,,,0.000135800000,   0.01600,
,,,0.000135900000,   0.04000,
,,,0.000136000000,   0.05600,
,,,0.000136100000,   0.08000,
,,,0.000136200000,   0.09600,
,,,0.000136300000,   0.11200,
,,,0.000136400000,   0.13600,
,,,0.000136500000,   0.15200,
,,,0.000136600000,   0.17600,
,,,0.000136700000,   0.19200,
,,,0.000136800000,   0.21600,
,,,0.000136900000,   0.23200,
,,,0.000137000000,   0.24800,
,,,0.000137100000,   0.26400,
,,,0.000137200000,   0.28000,
,,,0.000137300000,   0.29600,
,,,0.000137400000,   0.32000,
,,,0.000137500000,   0.32800,
,,,0.000137600000,   0.34400,
,,,0.000137700000,   0.36000,
,,,0.000137800000,   0.36800,
,,,0.000137900000,   0.38400,
,,,0.000138000000,   0.40000,
,,,0.000138100000,   0.41600,
,,,0.000138200000,   0.42400,
,,,0.000138300000,   0.43200,
,,,0.000138400000,   0.44000,
,,,0.000138500000,   0.44800,
,,,0.000138600000,   0.45600,
,,,0.000138700000,   0.46400,
,,,0.000138800000,   0.47200,
,,,0.000138900000,   0.48000,
,,,0.000139000000,   0.48000,
,,,0.000139100000,   0.48800,
,,,0.000139200000,   0.49600,
,,,0.000139300000,   0.48800,
,,,0.000139400000,   0.49600,
,,,0.000139500000,   0.49600,
,,,0.000139600000,   0.49600,
,,,0.000139700000,   0.49600,
,,,0.000139800000,   0.48800,
,,,0.000139900000,   0.48800,
,,,0.000140000000,   0.48800,
,,,0.000140100000,   0.48000,
,,,0.000140200000,   0.47200,
,,,0.000140300000,   0.46400,
,,,0.000140400000,   0.46400,
,,,0.000140500000,   0.45600,
,,,0.000140600000,   0.44800,
,,,0.000140700000,   0.43200,
,,,0.000140800000,   0.42400,
,,,0.000140900000,   0.41600,
,,,0.000141000000,   0.40800,
,,,0.000141100000,   0.39200,
,,,0.000141200000,   0.37600,
,,,0.000141300000,   0.36800,
,,,0.000141400000,   0.35200,
,,,0.000141500000,   0.33600,
,,,0.000141600000,   0.32800,
,,,0.000141700000,   0.30400,
,,,0.000141800000,   0.29600,
,,,0.000141900000,   0.27200,
,,,0.000142000000,   0.25600,
,,,0.000142100000,   0.24000,
,,,0.000142200000,   0.21600,
,,,0.000142300000,   0.20800,
,,,0.000142400000,   0.18400,
,,,0.000142500000,   0.16800,
,,,0.000142600000,   0.15200,
,,,0.000142700000,   0.12800,
,,,0.000142800000,   0.10400,
,,,0.000142900000,   0.08800,
,,,0.000143000000,   0.07200,
,,,0.000143100000,   0.04800,
,,,0.000143200000,   0.02400,
,,,0.000143300000,   0.00800,
,,,0.000143400000,  -0.01600,
,,,0.000143500000,  -0.03200,
,,,0.000143600000,  -0.05600,
,,,0.000143700000,  -0.07200,
,,,0.000143800000,  -0.09600,
,,,0.000143900000,  -0.11200,
,,,0.000144000000,  -0.13600,
,,,0.000144100000,  -0.15200,
,,,0.000144200000,  -0.17600,
,,,0.000144300000,  -0.20000,
,,,0.000144400000,  -0.20800,
,,,0.000144500000,  -0.23200,
,,,0.000144600000,  -0.24800,
,,,0.000144700000,  -0.26400,
,,,0.000144800000,  -0.28800,
,,,0.000144900000,  -0.29600,
,,,0.000145000000,  -0.31200,
,,,0.000145100000,  -0.32800,
,,,0.000145200000,  -0.34400,
,,,0.000145300000,  -0.36000,
,,,0.000145400000,  -0.37600,
,,,0.000145500000,  -0.38400,
,,,0.000145600000,  -0.40000,
,,,0.000145700000,  -0.40800,
,,,0.000145800000,  -0.41600,
,,,0.000145900000,  -0.43200,
,,,0.000146000000,  -0.44000,
,,,0.000146100000,  -0.44800,
,,,0.000146200000,  -0.45600,
,,,0.000146300000,  -0.46400,
,,,0.000146400000,  -0.47200,
,,,0.000146500000,  -0.47200,
,,,0.000146600000,  -0.48000,
,,,0.000146700000,  -0.48000,
,,,0.000146800000,  -0.48800,
,,,0.000146900000,  -0.48800,
,,,0.000147000000,  -0.48800,
,,,0.000147100000,  -0.49600,
,,,0.000147200000,  -0.48800,
,,,0.000147300000,  -0.48800,
,,,0.000147400000,  -0.48800,
,,,0.000147500000,  -0.48800,
,,,0.000147600000,  -0.48000,
,,,0.000147700000,  -0.48000,
,,,0.000147800000,  -0.47200,
,,,0.000147900000,  -0.46400,
,,,0.000148000000,  -0.45600,
,,,0.000148100000,  -0.44800,
,,,0.000148200000,  -0.44800,
,,,0.000148300000,  -0.44000,
,,,0.000148400000,  -0.41600,
,,,0.000148500000,  -0.41600,
,,,0.000148600000,  -0.40000,
,,,0.000148700000,  -0.38400,
,,,0.000148800000,  -0.37600,
,,,0.000148900000,  -0.36000,
,,,0.000149000000,  -0.35200,
,,,0.000149100000,  -0.32800,
,,,0.000149200000,  -0.32000,
,,,0.000149300000,  -0.30400,
,,,0.000149400000,  -0.28800,
,,,0.000149500000,  -0.27200,
,,,0.000149600000,  -0.25600,
,,,0.000149700000,  -0.23200,
,,,0.000149800000,  -0.21600,
,,,0.000149900000,  -0.20000,
,,,0.000150000000,  -0.18400,
,,,0.000150100000,  -0.16000,
,,,0.000150200000,  -0.14400,
,,,0.000150300000,  -0.12000,
,,,0.000150400000,  -0.10400,
,,,0.000150500000,  -0.08000,
,,,0.000150600000,  -0.05600,
,,,0.000150700000,  -0.04000,
,,,0.000150800000,  -0.01600,
,,,0.000150900000,   0.00000,
,,,0.000151000000,   0.01600,
,,,0.000151100000,   0.04000,
,,,0.000151200000,   0.06400,
,,,0.000151300000,   0.08000,
,,,0.000151400000,   0.10400,
,,,0.000151500000,   0.12800,
,,,0.000151600000,   0.13600,
,,,0.000151700000,   0.16000,
,,,0.000151800000,   0.17600,
,,,0.000151900000,   0.20000,
,,,0.000152000000,   0.21600,
,,,0.000152100000,   0.24000,
,,,0.000152200000,   0.25600,
,,,0.000152300000,   0.27200,
,,,0.000152400000,   0.28800,
,,,0.000152500000,   0.30400,
,,,0.000152600000,   0.32000,
,,,0.000152700000,   0.33600,
,,,0.000152800000,   0.35200,
,,,0.000152900000,   0.36000,
,,,0.000153000000,   0.37600,
,,,0.000153100000,   0.39200,
,,,0.000153200000,   0.40000,
,,,0.000153300000,   0.40800,
,,,0.000153400000,   0.42400,
,,,0.000153500000,   0.43200,
,,,0.000153600000,   0.44000,
,,,0.000153700000,   0.44800,
,,,0.000153800000,   0.45600,
,,,0.000153900000,   0.46400,
,,,0.000154000000,   0.47200,
,,,0.000154100000,   0.48000,
,,,0.000154200000,   0.48000,
,,,0.000154300000,   0.48800,
,,,0.000154400000,   0.48800,
,,,0.000154500000,   0.49600,
,,,0.000154600000,   0.48800,
,,,0.000154700000,   0.49600,
,,,0.000154800000,   0.49600,
,,,0.000154900000,   0.48800,
,,,0.000155000000,   0.48800,
,,,0.000155100000,   0.48000,
,,,0.000155200000,   0.48000,
,,,0.000155300000,   0.48000,
,,,0.000155400000,   0.47200,
,,,0.000155500000,   0.46400,
,,,0.000155600000,   0.45600,
,,,0.000155700000,   0.44800,
,,,0.000155800000,   0.44000,
,,,0.000155900000,   0.43200,
,,,0.000156000000,   0.42400,
,,,0.000156100000,   0.40800,
,,,0.000156200000,   0.40800,
,,,0.000156300000,   0.39200,
,,,0.000156400000,   0.37600,
,,,0.000156500000,   0.36000,
,,,0.000156600000,   0.35200,
,,,0.000156700000,   0.33600,
,,,0.000156800000,   0.32000,
,,,0.000156900000,   0.30400,
,,,0.000157000000,   0.28000,
,,,0.000157100000,   0.27200,
,,,0.000157200000,   0.25600,
,,,0.000157300000,   0.23200,
,,,0.000157400000,   0.21600,
,,,0.000157500000,   0.19200,
,,,0.000157600000,   0.17600,
,,,0.000157700000,   0.16000,
,,,0.000157800000,   0.14400,
,,,0.000157900000,   0.12000,
,,,0.000158000000,   0.09600,
,,,0.000158100000,   0.08000,
,,,0.000158200000,   0.05600,
,,,0.000158300000,   0.04000,
,,,0.000158400000,   0.02400,
,,,0.000158500000,   0.00000,
,,,0.000158600000,  -0.02400,
,,,0.000158700000,  -0.04000,
,,,0.000158800000,  -0.06400,
,,,0.000158900000,  -0.08000,
,,,0.000159000000,  -0.10400,
,,,0.000159100000,  -0.12000,
,,,0.000159200000,  -0.14400,
,,,0.000159300000,  -0.16000,
,,,0.000159400000,  -0.18400,
,,,0.000159500000,  -0.20000,
,,,0.000159600000,  -0.21600,
,,,0.000159700000,  -0.23200,
,,,0.000159800000,  -0.25600,
,,,0.000159900000,  -0.27200,
,,,0.000160000000,  -0.28800,
,,,0.000160100000,  -0.30400,
,,,0.000160200000,  -0.32000,
,,,0.000160300000,  -0.33600,
,,,0.000160400000,  -0.34400,
,,,0.000160500000,  -0.36000,
,,,0.000160600000,  -0.37600,
,,,0.000160700000,  -0.39200,
,,,0.000160800000,  -0.40000,
,,,0.000160900000,  -0.41600,
,,,0.000161000000,  -0.42400,
,,,0.000161100000,  -0.43200,
,,,0.000161200000,  -0.44000,
,,,0.000161300000,  -0.44800,
,,,0.000161400000,  -0.45600,
,,,0.000161500000,  -0.46400,
,,,0.000161600000,  -0.47200,
,,,0.000161700000,  -0.47200,
,,,0.000161800000,  -0.48000,
,,,0.000161900000,  -0.48000,
,,,0.000162000000,  -0.48800,
,,,0.000162100000,  -0.48800,
,,,0.000162200000,  -0.48800,
,,,0.000162300000,  -0.48800,
,,,0.000162400000,  -0.48800,
,,,0.000162500000,  -0.48800,
,,,0.000162600000,  -0.48800,
,,,0.000162700000,  -0.48800,
,,,0.000162800000,  -0.47200,
,,,0.000162900000,  -0.47200,
,,,0.000163000000,  -0.47200,
,,,0.000163100000,  -0.45600,
,,,0.000163200000,  -0.44800,
,,,0.000163300000,  -0.44000,
,,,0.000163400000,  -0.44000,
,,,0.000163500000,  -0.42400,
,,,0.000163600000,  -0.41600,
,,,0.000163700000,  -0.40800,
,,,0.000163800000,  -0.39200,
,,,0.000163900000,  -0.37600,
,,,0.000164000000,  -0.37600,
,,,0.000164100000,  -0.36000,
,,,0.000164200000,  -0.33600,
,,,0.000164300000,  -0.32800,
,,,0.000164400000,  -0.31200,
,,,0.000164500000,  -0.29600,
,,,0.000164600000,  -0.28000,
,,,0.000164700000,  -0.26400,
,,,0.000164800000,  -0.24800,
,,,0.000164900000,  -0.22400,
,,,0.000165000000,  -0.20800,
,,,0.000165100000,  -0.19200,
,,,0.000165200000,  -0.16800,
,,,0.000165300000,  -0.15200,
,,,0.000165400000,  -0.12800,
,,,0.000165500000,  -0.11200,
,,,0.000165600000,  -0.08800,
,,,0.000165700000,  -0.07200,
,,,0.000165800000,  -0.04800,
,,,0.000165900000,  -0.03200,
,,,0.000166000000,  -0.01600,
,,,0.000166100000,   0.00800,
,,,0.000166200000,   0.03200,
,,,0.000166300000,   0.04800,
,,,0.000166400000,   0.06400,
,,,0.000166500000,   0.08800,
,,,0.000166600000,   0.11200,
,,,0.000166700000,   0.12800,
,,,0.000166800000,   0.15200,
,,,0.000166900000,   0.16800,
,,,0.000167000000,   0.19200,
,,,0.000167100000,   0.20800,
,,,0.000167200000,   0.22400,
,,,0.000167300000,   0.24000,
,,,0.000167400000,   0.25600,
,,,0.000167500000,   0.27200,
,,,0.000167600000,   0.29600,
,,,0.000167700000,   0.31200,
,,,0.000167800000,   0.32800,
,,,0.000167900000,   0.33600,
,,,0.000168000000,   0.35200,
,,,0.000168100000,   0.36800,
,,,0.000168200000,   0.38400,
,,,0.000168300000,   0.39200,
,,,0.000168400000,   0.40800,
,,,0.000168500000,   0.41600,
,,,0.000168600000,   0.42400,
,,,0.000168700000,   0.44000,
,,,0.000168800000,   0.44800,
,,,0.000168900000,   0.45600,
,,,0.000169000000,   0.46400,
,,,0.000169100000,   0.46400,
,,,0.000169200000,   0.48000,
,,,0.000169300000,   0.48000,
,,,0.000169400000,   0.48800,
,,,0.000169500000,   0.48800,
,,,0.000169600000,   0.48800,
,,,0.000169700000,   0.48800,
,,,0.000169800000,   0.49600,
,,,0.000169900000,   0.49600,
,,,0.000170000000,   0.49600,
,,,0.000170100000,   0.49600,
,,,0.000170200000,   0.48800,
,,,0.000170300000,   0.48000,
